AAFAJFPLBMI,7944
ABAMJKJOMHJ,7765
ABBBKIDODLJ,21566
AbilityChangeNotify,1159
AbilityInvocationFailNotify,1114
AbilityInvocationFixedNotify,1167
AbilityInvocationsNotify,1175
AcceptCityReputationRequestReq,2882
AcceptCityReputationRequestRsp,2865
AchievementAllDataNotify,2698
AchievementUpdateNotify,2693
ActivityAcceptAllGiveGiftReq,8394
ActivityAcceptAllGiveGiftRsp,8241
ActivityAcceptGiveGiftReq,8303
ActivityAcceptGiveGiftRsp,8915
ActivityBannerClearReq,2114
ActivityBannerClearRsp,2037
ActivityBannerNotify,2018
ActivityCoinInfoNotify,2189
ActivityCondStateChangeNotify,2012
ActivityDisableTransferPointInteractionNotify,8969
ActivityGetCanGiveFriendGiftReq,8934
ActivityGetCanGiveFriendGiftRsp,8186
ActivityGetFriendGiftWishListReq,8091
ActivityGetFriendGiftWishListRsp,8777
ActivityGetRecvGiftListReq,8973
ActivityGetRecvGiftListRsp,8791
ActivityGiveFriendGiftReq,8763
ActivityGiveFriendGiftRsp,8524
ActivityHaveRecvGiftNotify,8350
ActivityInfoNotify,2134
ActivityPlayOpenAnimNotify,2136
ActivityPushTipsInfoNotify,8419
ActivityReadPushTipsReq,8285
ActivityReadPushTipsRsp,8119
ActivitySaleChangeNotify,2034
ActivityScheduleInfoNotify,2068
ActivitySelectAvatarCardReq,2043
ActivitySelectAvatarCardRsp,2130
ActivitySetGiftWishReq,8848
ActivitySetGiftWishRsp,8764
ActivityTakeAllScoreRewardReq,8731
ActivityTakeAllScoreRewardRsp,8964
ActivityTakeScoreRewardReq,8869
ActivityTakeScoreRewardRsp,8852
ActivityTakeWatcherRewardBatchReq,2044
ActivityTakeWatcherRewardBatchRsp,2023
ActivityTakeWatcherRewardReq,2063
ActivityTakeWatcherRewardRsp,2082
ActivityUpdateWatcherNotify,2183
AddAranaraCollectionNotify,6393
AddBackupAvatarTeamReq,1602
AddBackupAvatarTeamRsp,1777
AddBlacklistReq,4041
AddBlacklistRsp,4070
AddFriendNotify,4019
AddNoGachaAvatarCardNotify,1787
AddQuestContentProgressReq,434
AddQuestContentProgressRsp,472
AddRandTaskInfoNotify,187
AddSeenMonsterNotify,235
AdjustWorldLevelReq,132
AdjustWorldLevelRsp,131
AEEFNFKPHED,7794
AllCoopInfoNotify,1998
AllMarkPointNotify,3156
AllSeenMonsterNotify,252
AllShareCDDataNotify,9067
AllWidgetBackgroundActiveStateNotify,6034
AllWidgetDataNotify,4300
AnchorPointDataNotify,4298
AnchorPointOpReq,4296
AnchorPointOpRsp,4286
AnimatorForceSetAirMoveNotify,337
AntiAddictNotify,103
AOMHEMBIHNE,7271
AranaraCollectionDataNotify,6398
AreaPlayInfoNotify,3472
ArenaChallengeFinishNotify,2169
AskAddFriendNotify,4044
AskAddFriendReq,4014
AskAddFriendRsp,4034
AssociateInferenceWordReq,438
AssociateInferenceWordRsp,404
AsterLargeInfoNotify,2059
AsterLittleInfoNotify,2006
AsterMidCampInfoNotify,2142
AsterMidInfoNotify,2118
AsterMiscInfoNotify,2072
AsterProgressInfoNotify,2173
AvatarAddNotify,1756
AvatarBuffAddNotify,341
AvatarBuffDelNotify,370
AvatarCardChangeReq,641
AvatarCardChangeRsp,670
AvatarChangeAnimHashReq,1620
AvatarChangeAnimHashRsp,1694
AvatarChangeCostumeNotify,1759
AvatarChangeCostumeReq,1611
AvatarChangeCostumeRsp,1760
AvatarChangeElementTypeReq,1790
AvatarChangeElementTypeRsp,1781
AvatarDataNotify,1613
AvatarDelNotify,1621
AvatarDieAnimationEndReq,1665
AvatarDieAnimationEndRsp,1795
AvatarEnterElementViewNotify,326
AvatarEquipAffixStartNotify,1666
AvatarEquipChangeNotify,661
AvatarExpeditionAllDataReq,1748
AvatarExpeditionAllDataRsp,1671
AvatarExpeditionCallBackReq,1791
AvatarExpeditionCallBackRsp,1631
AvatarExpeditionDataNotify,1646
AvatarExpeditionGetRewardReq,1641
AvatarExpeditionGetRewardRsp,1707
AvatarExpeditionStartReq,1763
AvatarExpeditionStartRsp,1699
AvatarFetterDataNotify,1648
AvatarFetterLevelRewardReq,1653
AvatarFetterLevelRewardRsp,1691
AvatarFightPropNotify,1214
AvatarFightPropUpdateNotify,1234
AvatarFlycloakChangeNotify,1728
AvatarFollowRouteNotify,3300
AvatarGainCostumeNotify,1701
AvatarGainFlycloakNotify,1793
AvatarLifeStateChangeNotify,1282
AvatarPromoteGetRewardReq,1610
AvatarPromoteGetRewardRsp,1711
AvatarPromoteReq,1799
AvatarPromoteRsp,1681
AvatarPropChangeReasonNotify,1265
AvatarPropNotify,1259
AvatarRenameInfoNotify,1758
AvatarSatiationDataNotify,1655
AvatarSkillChangeNotify,1042
AvatarSkillDepotChangeNotify,1064
AvatarSkillInfoNotify,1082
AvatarSkillMaxChargeCountNotify,1072
AvatarSkillUpgradeReq,1007
AvatarSkillUpgradeRsp,1091
AvatarTeamAllDataNotify,1729
AvatarTeamUpdateNotify,1744
AvatarUnlockTalentNotify,1054
AvatarUpgradeReq,1764
AvatarUpgradeRsp,1741
AvatarWearFlycloakReq,1700
AvatarWearFlycloakRsp,1745
BackMyWorldReq,280
BackMyWorldRsp,247
BackPlayCustomDungeonOfficialReq,6205
BackPlayCustomDungeonOfficialRsp,6216
BackRebornGalleryReq,5574
BackRebornGalleryRsp,5546
BargainOfferPriceReq,474
BargainOfferPriceRsp,446
BargainStartNotify,494
BargainTerminateNotify,484
BartenderCancelLevelReq,8161
BartenderCancelLevelRsp,8701
BartenderCancelOrderReq,8717
BartenderCancelOrderRsp,8850
BartenderCompleteOrderReq,8327
BartenderCompleteOrderRsp,8709
BartenderFinishLevelReq,9000
BartenderFinishLevelRsp,8044
BartenderGetFormulaReq,8500
BartenderGetFormulaRsp,8608
BartenderLevelProgressNotify,8518
BartenderStartLevelReq,8460
BartenderStartLevelRsp,8747
BatchBuyGoodsReq,765
BatchBuyGoodsRsp,750
BattlePassAllDataNotify,2648
BattlePassBuySuccNotify,2617
BattlePassCurScheduleUpdateNotify,2646
BattlePassMissionDelNotify,2609
BattlePassMissionUpdateNotify,2643
BeginCameraSceneLookNotify,260
BeginCameraSceneLookWithTemplateNotify,3096
BEICDJDPJML,7382
BFOFNKADCPB,21951
BHHECJHBCKK,7226
SkipPlayerGameTimeRsp,163
BHOJAANJMBF,20671
BigTalentPointConvertReq,1014
BigTalentPointConvertRsp,1034
BlessingAcceptAllGivePicReq,2160
BlessingAcceptAllGivePicRsp,2159
BlessingAcceptGivePicReq,2091
BlessingAcceptGivePicRsp,2187
BlessingGetAllRecvPicRecordListReq,2010
BlessingGetAllRecvPicRecordListRsp,2111
BlessingGetFriendPicListReq,2128
BlessingGetFriendPicListRsp,2193
BlessingGiveFriendPicReq,2066
BlessingGiveFriendPicRsp,2053
BlessingRecvFriendPicNotify,2011
BlessingRedeemRewardReq,2100
BlessingRedeemRewardRsp,2145
BlessingScanReq,2004
BlessingScanRsp,2055
BLHBPJDMPJG,24278
BlitzRushParkourRestartReq,8085
BlitzRushParkourRestartRsp,8538
BLNOFHFAMDO,7347
BlossomBriefInfoNotify,2754
BlossomChestCreateNotify,2734
BlossomChestInfoNotify,882
BonusActivityInfoReq,2591
BonusActivityInfoRsp,2542
BonusActivityUpdateNotify,2507
BossChestActivateNotify,872
BounceConjuringSettleNotify,8434
BPAMMINCHJG,7403
BrickBreakerPlayerReadyNotify,5310
BrickBreakerPlayerSetAvatarNotify,5400
BrickBreakerPlayerSetChangingNotify,5363
BrickBreakerPlayerSetSkillNotify,5339
BrickBreakerQuitReq,23962
BrickBreakerQuitRsp,23315
BrickBreakerSelectAvatarReq,5381
BrickBreakerSelectAvatarRsp,5377
BrickBreakerSelectSkillReq,5362
BrickBreakerSelectSkillRsp,5368
BrickBreakerSetChangingReq,5351
BrickBreakerSetChangingRsp,5396
BrickBreakerSetReadyReq,5315
BrickBreakerSetReadyRsp,5369
BrickBreakerSettleNotify,23542
BrickBreakerTwiceStartReq,20383
BrickBreakerTwiceStartRsp,23499
BuoyantCombatSettleNotify,8387
BuyBattlePassLevelReq,2626
BuyBattlePassLevelRsp,2612
BuyGoodsReq,754
BuyGoodsRsp,764
BuyResinReq,630
BuyResinRsp,687
CAHLHGDPIOF,6473
CalcWeaponUpgradeReturnItemsReq,601
CalcWeaponUpgradeReturnItemsRsp,698
CancelCityReputationRequestReq,2850
CancelCityReputationRequestRsp,2859
CancelCoopTaskReq,1976
CancelCoopTaskRsp,1962
CancelFinishParentQuestNotify,402
CanUseSkillNotify,1027
CardProductRewardNotify,4146
CataLogFinishedGlobalWatcherAllDataNotify,6385
CataLogNewFinishedGlobalWatcherNotify,6371
CCOGDLMGCID,20738
CDPJBKBLFEG,7535
CEGIBBLHIIE,20935
CELEJBNIOID,23473
ChallengeDataNotify,923
ChallengeRecordNotify,974
ChangeAvatarReq,1704
ChangeAvatarRsp,1689
ChangeCustomDungeonRoomReq,6232
ChangeCustomDungeonRoomRsp,6239
ChangeGameTimeReq,165
ChangeGameTimeRsp,150
ChangeMailStarNotify,1491
ChangeMpTeamAvatarReq,1660
ChangeMpTeamAvatarRsp,1747
ChangeServerGlobalValueNotify,46
ChangeTeamNameReq,1692
ChangeTeamNameRsp,1664
ChangeWidgetBackgroundActiveStateReq,5953
ChangeWidgetBackgroundActiveStateRsp,6042
ChangeWorldToSingleModeNotify,3025
ChangeWorldToSingleModeReq,3243
ChangeWorldToSingleModeRsp,3271
ChannelerSlabStageActiveChallengeIndexNotify,8647
ChannelerSlabStageOneoffDungeonNotify,8690
ChannellerSlabCheckEnterLoopDungeonReq,8485
ChannellerSlabCheckEnterLoopDungeonRsp,8430
ChannellerSlabEnterLoopDungeonReq,8287
ChannellerSlabEnterLoopDungeonRsp,8193
ChannellerSlabLoopDungeonChallengeInfoNotify,8364
ChannellerSlabLoopDungeonSelectConditionReq,8951
ChannellerSlabLoopDungeonSelectConditionRsp,8794
ChannellerSlabLoopDungeonTakeFirstPassRewardReq,8191
ChannellerSlabLoopDungeonTakeFirstPassRewardRsp,8247
ChannellerSlabLoopDungeonTakeScoreRewardReq,8944
ChannellerSlabLoopDungeonTakeScoreRewardRsp,8587
ChannellerSlabOneOffDungeonInfoNotify,8036
ChannellerSlabOneOffDungeonInfoReq,8079
ChannellerSlabOneOffDungeonInfoRsp,8403
ChannellerSlabSaveAssistInfoReq,8877
ChannellerSlabSaveAssistInfoRsp,8269
ChannellerSlabTakeoffBuffReq,8271
ChannellerSlabTakeoffBuffRsp,8875
ChannellerSlabWearBuffReq,8648
ChannellerSlabWearBuffRsp,8668
ChapterStateNotify,427
CharAmusementSettleNotify,23655
ChatChannelDataNotify,5041
ChatChannelInfoNotify,4979
ChatChannelShieldNotify,4992
ChatChannelUpdateNotify,4957
ChatHistoryNotify,3301
CheckAddItemExceedLimitNotify,685
CheckGroupReplacedReq,3036
CheckGroupReplacedRsp,3190
CheckSegmentCRCNotify,56
CheckSegmentCRCReq,23
CheckUgcStateReq,6302
CheckUgcStateRsp,6317
CheckUgcUpdateReq,6335
CheckUgcUpdateRsp,6321
ChessEscapedMonstersNotify,5389
ChessLeftMonstersNotify,5376
ChessManualRefreshCardsReq,5306
ChessManualRefreshCardsRsp,5390
ChessPickCardNotify,5303
ChessPickCardReq,5301
ChessPickCardRsp,5398
ChessPlayerInfoNotify,5392
ChessSelectedCardsNotify,5385
CHGIPLGANOM,7097
ChooseCurAvatarTeamReq,1650
ChooseCurAvatarTeamRsp,1625
CityReputationDataNotify,2827
CityReputationLevelupNotify,2814
ClearRoguelikeCurseNotify,8565
ClientAbilitiesInitFinishCombineNotify,1172
ClientAbilityChangeNotify,1107
ClientAbilityInitBeginNotify,1154
ClientAbilityInitFinishNotify,1164
ClientAIStateNotify,1129
ClientBulletCreateNotify,94
ClientCollectorDataNotify,4267
ClientHashDebugNotify,3234
ClientLoadingCostumeVerificationNotify,3387
ClientLockGameTimeNotify,189
ClientNewMailNotify,1450
ClientPauseNotify,276
ClientReconnectNotify,7
ClientRemoveCombatEndModifierNotify,1166
ClientReportNotify,29
ClientScriptEventNotify,248
ClientTransmitReq,271
ClientTransmitRsp,202
ClientTriggerEventNotify,191
CloseCommonTipsNotify,3196
ClosedItemNotify,689
CMCJOKLGMCA,7150
CodexDataFullNotify,4203
CodexDataUpdateNotify,4207
CoinCollectCheckDoubleStartPlayReq,23353
CoinCollectCheckDoubleStartPlayRsp,23249
CoinCollectChooseSkillReq,21522
CoinCollectChooseSkillRsp,24615
CoinCollectGallerySettleNotify,5533
CoinCollectInterruptPlayReq,20221
CoinCollectInterruptPlayRsp,23195
CoinCollectPrepareReq,21645
CoinCollectPrepareRsp,22764
CoinCollectPrepareStageNotify,6553
CombatInvocationsNotify,387
CombineDataNotify,690
CombineFormulaDataNotify,692
CombineReq,616
CombineRsp,637
CommonPlayerTipsNotify,8076
CompoundDataNotify,118
CompoundUnlockNotify,155
CookDataNotify,157
CookGradeDataNotify,126
CookRecipeDataNotify,186
CoopCgShowNotify,1957
CoopCgUpdateNotify,1989
CoopChapterUpdateNotify,1982
CoopDataNotify,1994
CoopPointUpdateNotify,1951
CoopProgressUpdateNotify,1990
CoopRewardUpdateNotify,1981
CreateMassiveEntityNotify,340
CreateMassiveEntityReq,349
CreateMassiveEntityRsp,397
CreateVehicleReq,874
CreateVehicleRsp,846
CrystalLinkDungeonInfoNotify,8925
CrystalLinkEnterDungeonReq,8861
CrystalLinkEnterDungeonRsp,8067
CrystalLinkRestartDungeonReq,8317
CrystalLinkRestartDungeonRsp,8748
CustomDungeonBattleRecordNotify,6233
CustomDungeonOfficialNotify,6250
CustomDungeonRecoverNotify,6204
CustomDungeonUpdateNotify,6225
CutSceneBeginNotify,295
CutSceneEndNotify,283
CutSceneFinishNotify,228
DailyTaskDataNotify,111
DailyTaskFilterCityReq,199
DailyTaskFilterCityRsp,178
DailyTaskProgressNotify,160
DailyTaskScoreRewardNotify,193
DailyTaskUnlockedCitiesNotify,180
DataResVersionNotify,140
DCAJABFLBPO,6312
DealAddFriendReq,4072
DealAddFriendRsp,4082
DeathZoneInfoNotify,6293
DeathZoneObserveNotify,3232
DelBackupAvatarTeamReq,1608
DelBackupAvatarTeamRsp,1615
DeleteFriendNotify,4023
DeleteFriendReq,4059
DeleteFriendRsp,4007
DelMailReq,1434
DelMailRsp,1472
DelScenePlayTeamEntityNotify,3214
DelTeamEntityNotify,330
DeshretObeliskChestInfoNotify,858
DestroyMassiveEntityNotify,311
DestroyMaterialReq,608
DestroyMaterialRsp,679
DGEBNIILIFA,21567
DGJPEEHMCKN,23251
DIANBBBLJHP,117
DigActivityChangeGadgetStateReq,8140
DigActivityChangeGadgetStateRsp,8656
DigActivityMarkPointChangeNotify,8585
DIPLFLKIDJN,7269
DisableRoguelikeTrapNotify,8007
DoGachaReq,1554
DoGachaRsp,1564
DoRoguelikeDungeonCardGachaReq,8427
DoRoguelikeDungeonCardGachaRsp,8567
DoSetPlayerBornDataNotify,161
DraftGuestReplyInviteNotify,5482
DraftGuestReplyInviteReq,5434
DraftGuestReplyInviteRsp,5472
DraftGuestReplyTwiceConfirmNotify,5442
DraftGuestReplyTwiceConfirmReq,5459
DraftGuestReplyTwiceConfirmRsp,5407
DraftInviteResultNotify,5465
DraftOwnerInviteNotify,5414
DraftOwnerStartInviteReq,5454
DraftOwnerStartInviteRsp,5464
DraftOwnerTwiceConfirmNotify,5450
DraftTwiceConfirmResultNotify,5491
DragonSpineChapterFinishNotify,2182
DragonSpineChapterOpenNotify,2126
DragonSpineChapterProgressChangeNotify,2155
DragonSpineCoinChangeNotify,2076
DropHintNotify,633
DropItemReq,650
DropItemRsp,659
DuelHeartCgEndNotify,23386
DuelHeartEnterDungeonReq,23327
DuelHeartEnterDungeonRsp,21442
DuelHeartRestartDungeonReq,22204
DuelHeartRestartDungeonRsp,23846
DuelHeartSelectDifficultyReq,21123
DuelHeartSelectDifficultyRsp,22336
DuelHeartSettleNotify,24743
DungeonCandidateTeamChangeAvatarReq,988
DungeonCandidateTeamChangeAvatarRsp,949
DungeonCandidateTeamCreateReq,957
DungeonCandidateTeamCreateRsp,986
DungeonCandidateTeamDismissNotify,913
DungeonCandidateTeamInfoNotify,946
DungeonCandidateTeamInviteNotify,984
DungeonCandidateTeamInviteReq,926
DungeonCandidateTeamInviteRsp,933
DungeonCandidateTeamKickReq,916
DungeonCandidateTeamKickRsp,937
DungeonCandidateTeamLeaveReq,925
DungeonCandidateTeamLeaveRsp,918
DungeonCandidateTeamPlayerLeaveNotify,970
DungeonCandidateTeamRefuseNotify,941
DungeonCandidateTeamReplyInviteReq,958
DungeonCandidateTeamReplyInviteRsp,905
DungeonCandidateTeamSetChangingAvatarReq,979
DungeonCandidateTeamSetChangingAvatarRsp,945
DungeonCandidateTeamSetReadyReq,971
DungeonCandidateTeamSetReadyRsp,902
DungeonChallengeBeginNotify,961
DungeonChallengeFinishNotify,956
DungeonDataNotify,966
DungeonDieOptionReq,907
DungeonDieOptionRsp,991
DungeonEntryInfoReq,967
DungeonEntryInfoRsp,975
DungeonEntryToBeExploreNotify,3313
DungeonFollowNotify,919
DungeonGetStatueDropReq,944
DungeonGetStatueDropRsp,994
DungeonInterruptChallengeReq,993
DungeonInterruptChallengeRsp,930
DungeonPlayerDieNotify,959
DungeonPlayerDieReq,929
DungeonPlayerDieRsp,927
DungeonRestartInviteNotify,904
DungeonRestartInviteReplyNotify,936
DungeonRestartInviteReplyReq,920
DungeonRestartInviteReplyRsp,943
DungeonRestartReq,953
DungeonRestartResultNotify,908
DungeonRestartRsp,938
DungeonReviseLevelNotify,901
DungeonSettleNotify,950
DungeonShowReminderNotify,942
DungeonSlipRevivePointActivateReq,911
DungeonSlipRevivePointActivateRsp,960
DungeonWayPointActivateReq,982
DungeonWayPointActivateRsp,965
DungeonWayPointNotify,972
EAHMNIJJAGF,7431
EchoNotify,44
EchoShellTakeRewardReq,8078
EchoShellTakeRewardRsp,8523
EchoShellUpdateNotify,8377
EENIBKHGPFN,6325
EffigyChallengeInfoNotify,2038
EffigyChallengeResultNotify,2028
EffigyChallengeV2ChooseSkillReq,22701
EffigyChallengeV2ChooseSkillRsp,20234
EffigyChallengeV2DungeonInfoNotify,22612
EffigyChallengeV2EnterDungeonReq,21498
EffigyChallengeV2EnterDungeonRsp,20507
EffigyChallengeV2RestartDungeonReq,20949
EffigyChallengeV2RestartDungeonRsp,20266
EGBBOPCNHCH,7048
EIBCBFDBDFF,24705
EKBBAAECGFH,6538
EndCameraSceneLookNotify,293
EndCoinCollectPlaySingleModeReq,21430
EndCoinCollectPlaySingleModeRsp,21333
EnterChessDungeonReq,8341
EnterChessDungeonRsp,8947
EnterCustomDungeonReq,6248
EnterCustomDungeonRsp,6243
EnterFishingReq,5848
EnterFishingRsp,5843
EnterFungusFighterPlotDungeonReq,24521
EnterFungusFighterPlotDungeonRsp,23659
EnterFungusFighterTrainingDungeonReq,21011
EnterFungusFighterTrainingDungeonRsp,22541
EnterIrodoriChessDungeonReq,8933
EnterIrodoriChessDungeonRsp,8211
EnterMechanicusDungeonReq,3959
EnterMechanicusDungeonRsp,3907
EnterRogueDiaryDungeonReq,8388
EnterRogueDiaryDungeonRsp,8515
EnterRoguelikeDungeonNotify,8557
EnterSceneDoneReq,269
EnterSceneDoneRsp,281
EnterScenePeerNotify,215
EnterSceneReadyReq,300
EnterSceneReadyRsp,239
EnterSceneWeatherAreaNotify,288
EnterTransPointRegionNotify,227
EnterTrialAvatarActivityDungeonReq,2084
EnterTrialAvatarActivityDungeonRsp,2154
EnterWorldAreaReq,233
EnterWorldAreaRsp,216
EntityAiKillSelfNotify,308
EntityAiSyncNotify,320
EntityAuthorityChangeNotify,384
EntityConfigHashNotify,3103
EntityFightPropChangeReasonNotify,1272
EntityFightPropNotify,1254
EntityFightPropUpdateNotify,1264
EntityForceSyncReq,237
EntityForceSyncRsp,225
EntityJumpNotify,219
EntityMoveRoomNotify,3060
EntityPropNotify,1267
EntityTagChangeNotify,3428
EPCHCAEIPNH,7875
EquipRoguelikeRuneReq,8526
EquipRoguelikeRuneRsp,8572
EvtAiSyncCombatThreatInfoNotify,338
EvtAiSyncSkillCdNotify,325
EvtAnimatorParameterNotify,375
EvtAnimatorStateChangedNotify,359
EvtAvatarEnterFocusNotify,394
EvtAvatarExitFocusNotify,374
EvtAvatarLockChairReq,379
EvtAvatarLockChairRsp,345
EvtAvatarSitDownNotify,302
EvtAvatarStandUpNotify,388
EvtAvatarUpdateFocusNotify,346
EvtBeingHealedNotify,301
EvtBeingHitNotify,367
EvtBeingHitsCombineNotify,318
EvtBulletDeactiveNotify,342
EvtBulletHitNotify,391
EvtBulletMoveNotify,344
EvtCostStaminaNotify,365
EvtCreateGadgetNotify,314
EvtDestroyGadgetNotify,334
EvtDestroyServerGadgetNotify,336
EvtDoSkillSuccNotify,364
EvtEntityRenderersChangedNotify,316
EvtEntityStartDieEndNotify,329
EvtFaceToDirNotify,382
EvtFaceToEntityNotify,372
EvtLocalGadgetOwnerLeaveSceneNotify,398
EvtRushMoveNotify,307
EvtSetAttackTargetNotify,350
ExclusiveRuleNotify,147
ExecuteGadgetLuaReq,217
ExecuteGadgetLuaRsp,224
ExecuteGroupTriggerReq,204
ExecuteGroupTriggerRsp,220
ExitCustomDungeonTryReq,6226
ExitCustomDungeonTryRsp,6212
ExitFishingReq,5817
ExitFishingRsp,5826
ExitSceneWeatherAreaNotify,249
ExitTransPointRegionNotify,266
ExpeditionChallengeEnterRegionNotify,2077
ExpeditionChallengeFinishedNotify,2075
ExpeditionRecallReq,2008
ExpeditionRecallRsp,2015
ExpeditionStartReq,2002
ExpeditionStartRsp,2177
ExpeditionTakeRewardReq,2129
ExpeditionTakeRewardRsp,2158
FBCDGELAJFK,23503
FBGIHFMDFCI,22891
FBHMBKHGMMP,7293
FBPFOPMOOIM,7422
FCCDEOJODEO,23471
FCFNMEJMONG,23594
FDHMBLAHCMP,7311
FDOHOGJAGDN,7390
FEGFMGMLCKG,6326
FFHGPFHLKPI,7528
FFKIBGMCDAG,7587
FGOAFKPBNDC,7558
FindHilichurlAcceptQuestNotify,8170
FindHilichurlFinishSecondQuestNotify,8326
FinishDeliveryNotify,2110
FinishedParentQuestNotify,464
FinishedParentQuestUpdateNotify,414
FinishedTalkIdListNotify,565
FinishLanternProjectionReq,8720
FinishLanternProjectionRsp,8016
FinishMainCoopReq,1986
FinishMainCoopRsp,1965
FireworksLaunchDataNotify,6038
FireworksReformDataNotify,6080
FishAttractNotify,5812
FishBaitGoneNotify,5825
FishBattleBeginReq,5835
FishBattleBeginRsp,5821
FishBattleEndReq,5801
FishBattleEndRsp,5802
FishBiteReq,5839
FishBiteRsp,5831
FishCastRodReq,5836
FishCastRodRsp,5815
FishChosenNotify,5844
FishEscapeNotify,5832
FishingGallerySettleNotify,8594
FishPoolDataNotify,5840
FLANFFAFKCL,7668
FleurFairBalloonSettleNotify,2200
FleurFairBuffEnergyNotify,5302
FleurFairFallSettleNotify,2027
FleurFairFinishGalleryStageNotify,5349
FleurFairMusicGameSettleReq,2086
FleurFairMusicGameSettleRsp,2033
FleurFairMusicGameStartReq,2150
FleurFairMusicGameStartRsp,2174
FleurFairReplayMiniGameReq,2165
FleurFairReplayMiniGameRsp,2192
FleurFairStageSettleNotify,5388
FlightActivityRestartReq,2039
FlightActivityRestartRsp,2093
FlightActivitySettleNotify,2115
FMFLCOLFIOF,7551
FMMFNKAIMMA,7916
FocusAvatarReq,1712
FocusAvatarRsp,1604
FOLNGHHMFKC,7577
ForceAddPlayerFriendReq,4004
ForceAddPlayerFriendRsp,4020
ForceDragAvatarNotify,3017
ForceDragBackTransferNotify,3245
ForgeDataNotify,603
ForgeFormulaDataNotify,606
ForgeGetQueueDataReq,618
ForgeGetQueueDataRsp,658
ForgeQueueDataNotify,625
ForgeQueueManipulateReq,602
ForgeQueueManipulateRsp,688
ForgeStartReq,605
ForgeStartRsp,671
FoundationNotify,861
FoundationReq,827
FoundationRsp,866
FriendInfoChangeNotify,4092
FungusCaptureSettleNotify,5586
FungusCultivateReq,20945
FungusCultivateRsp,20453
FungusFighterClearTrainingRuntimeDataReq,22416
FungusFighterClearTrainingRuntimeDataRsp,23407
FungusFighterPlotInfoNotify,21404
FungusFighterRestartTraningDungeonReq,21003
FungusFighterRestartTraningDungeonRsp,22118
FungusFighterRuntimeDataNotify,23794
FungusFighterTrainingGallerySettleNotify,22564
FungusFighterTrainingInfoNotify,5557
FungusFighterTrainingSelectFungusReq,21717
FungusFighterTrainingSelectFungusRsp,22453
FungusFighterUseBackupFungusReq,21052
FungusFighterUseBackupFungusRsp,24976
FungusRenameReq,20295
FungusRenameRsp,21198
FunitureMakeMakeInfoChangeNotify,4588
FurnitureCurModuleArrangeCountNotify,4864
FurnitureMakeBeHelpedNotify,4694
FurnitureMakeCancelReq,4619
FurnitureMakeCancelRsp,4825
FurnitureMakeFinishNotify,4658
FurnitureMakeHelpReq,4851
FurnitureMakeHelpRsp,4841
FurnitureMakeReq,4681
FurnitureMakeRsp,4506
FurnitureMakeStartReq,4552
FurnitureMakeStartRsp,4487
GachaActivityCreateRobotReq,8654
GachaActivityCreateRobotRsp,8808
GachaActivityNextStageReq,8212
GachaActivityNextStageRsp,8304
GachaActivityPercentNotify,8469
GachaActivityResetReq,8231
GachaActivityResetRsp,8296
GachaActivityTakeRewardReq,8796
GachaActivityTakeRewardRsp,8272
GachaActivityUpdateElemNotify,8338
GachaOpenWishNotify,1572
GachaSimpleInfoNotify,1582
GachaWishReq,1514
GachaWishRsp,1534
GadgetAutoPickDropInfoNotify,842
GadgetChainLevelChangeNotify,819
GadgetChainLevelUpdateNotify,823
GadgetChangeLevelTagReq,816
GadgetChangeLevelTagRsp,837
GadgetCustomTreeInfoNotify,833
GadgetGeneralRewardInfoNotify,891
GadgetInteractReq,867
GadgetInteractRsp,875
GadgetPlayDataNotify,859
GadgetPlayStartNotify,865
GadgetPlayStopNotify,850
GadgetPlayUidOpNotify,807
GadgetStateNotify,854
GadgetTalkChangeNotify,856
GalleryBalloonScoreNotify,5554
GalleryBalloonShootNotify,5575
GalleryBounceConjuringHitNotify,5527
GalleryBrokenFloorFallNotify,5507
GalleryBulletHitNotify,5559
GalleryCrystalLinkBuffInfoNotify,5556
GalleryCrystalLinkKillMonsterNotify,5561
GalleryFallCatchNotify,5514
GalleryFallScoreNotify,5534
GalleryFlowerCatchNotify,5565
GalleryIslandPartyDownHillInfoNotify,5519
GalleryPreStartNotify,5550
GalleryStartNotify,5567
GalleryStopNotify,5564
GallerySumoKillMonsterNotify,5566
GalleryWillStartCountdownNotify,5584
GANOMONNDGB,7188
GCGApplyInviteBattleNotify,7514
GCGApplyInviteBattleReq,7219
GCGApplyInviteBattleRsp,7940
GCGClientSettleRsp,7689
GCGDSCardNumChangeNotify,7509
GCGDSChangeCardFaceRsp,7872
GCGDSTakeCardProficiencyRewardReq,7366
GCGDSTakeCardProficiencyRewardRsp,7071
GCGGrowthLevelNotify,7680
GCGSettleOptionRsp,7883
GDCDMFBNHNH,7325
GDCMOBKPPOE,998
GearActivityFinishPlayGearReq,24069
GearActivityFinishPlayGearRsp,20017
GearActivityFinishPlayPictureReq,21009
GearActivityFinishPlayPictureRsp,23580
GearActivityStartPlayGearReq,24337
GearActivityStartPlayGearRsp,22301
GearActivityStartPlayPictureReq,24138
GearActivityStartPlayPictureRsp,23136
GetActivityInfoReq,2116
GetActivityInfoRsp,2140
GetActivityScheduleReq,2153
GetActivityScheduleRsp,2032
GetActivityShopSheetInfoReq,772
GetActivityShopSheetInfoRsp,782
GetAllActivatedBargainDataReq,413
GetAllActivatedBargainDataRsp,457
GetAllH5ActivityInfoReq,5693
GetAllH5ActivityInfoRsp,5698
GetAllMailNotify,1442
GetAllMailReq,1459
GetAllMailResultNotify,1429
GetAllMailRsp,1407
GetAllSceneGalleryInfoReq,5572
GetAllSceneGalleryInfoRsp,5582
GetAllUnlockNameCardReq,4046
GetAllUnlockNameCardRsp,4084
GetAreaExplorePointReq,258
GetAreaExplorePointRsp,205
GetAuthkeyReq,1482
GetAuthkeyRsp,1465
GetAuthSalesmanInfoReq,2139
GetAuthSalesmanInfoRsp,2123
GetBargainDataReq,441
GetBargainDataRsp,470
GetBattlePassProductReq,2639
GetBattlePassProductRsp,2631
GetBlossomBriefInfoListReq,2767
GetBlossomBriefInfoListRsp,2775
GetBonusActivityRewardReq,2529
GetBonusActivityRewardRsp,2527
GetChatEmojiCollectionReq,4021
GetChatEmojiCollectionRsp,4001
GetCityHuntingOfferReq,4309
GetCityHuntingOfferRsp,4346
GetCityReputationInfoReq,2867
GetCityReputationInfoRsp,2875
GetCityReputationMapInfoReq,2807
GetCityReputationMapInfoRsp,2891
GetCompoundDataReq,158
GetCompoundDataRsp,105
GetCustomDungeonReq,6247
GetCustomDungeonRsp,6220
GetDailyDungeonEntryInfoReq,997
GetDailyDungeonEntryInfoRsp,940
GetDungeonEntryExploreConditionReq,3449
GetDungeonEntryExploreConditionRsp,3413
GetExpeditionAssistInfoListReq,2180
GetExpeditionAssistInfoListRsp,2197
GetFriendShowAvatarInfoReq,4060
GetFriendShowAvatarInfoRsp,4093
GetFriendShowNameCardInfoReq,4053
GetFriendShowNameCardInfoRsp,4038
GetFurnitureCurModuleArrangeCountReq,4899
GetGachaInfoReq,1567
GetGachaInfoRsp,1575
GetGameplayRecommendationReq,109
GetGameplayRecommendationRsp,135
GetHomeExchangeWoodInfoReq,4852
GetHomeExchangeWoodInfoRsp,4592
GetHomeLevelUpRewardReq,4821
GetHomeLevelUpRewardRsp,4585
GetHuntingOfferRewardReq,4336
GetHuntingOfferRewardRsp,4315
GetInvestigationMonsterReq,1909
GetInvestigationMonsterRsp,1923
GetMailItemReq,1464
GetMailItemRsp,1414
GetMapAreaReq,3084
GetMapAreaRsp,3458
GetMapMarkTipsReq,3342
GetMapMarkTipsRsp,3465
GetMechanicusInfoReq,3967
GetMechanicusInfoRsp,3975
GetNextResourceInfoReq,185
GetNextResourceInfoRsp,173
GetOnlinePlayerInfoReq,66
GetOnlinePlayerInfoRsp,61
GetOnlinePlayerListReq,82
GetOnlinePlayerListRsp,65
GetOpActivityInfoReq,5167
GetOpActivityInfoRsp,5175
GetParentQuestVideoKeyReq,460
GetParentQuestVideoKeyRsp,493
GetPlayerAskFriendListReq,4079
GetPlayerAskFriendListRsp,4045
GetPlayerBlacklistReq,4005
GetPlayerBlacklistRsp,4071
GetPlayerFriendListReq,4067
GetPlayerFriendListRsp,4075
GetPlayerHomeCompInfoReq,4511
GetPlayerMpModeAvailabilityReq,1839
GetPlayerMpModeAvailabilityRsp,1831
GetPlayerSocialDetailReq,4065
GetPlayerSocialDetailRsp,4050
GetPlayerTokenReq,167
GetPlayerTokenRsp,175
GetPushTipsRewardReq,2246
GetPushTipsRewardRsp,2284
GetQuestLackingResourceReq,440
GetQuestLackingResourceRsp,411
GetQuestTalkHistoryReq,482
GetQuestTalkHistoryRsp,465
GetRecentMpPlayerListReq,4026
GetRecentMpPlayerListRsp,4033
GetRecommendCustomDungeonReq,6238
GetRecommendCustomDungeonRsp,6240
GetRegionSearchReq,5636
GetReunionMissionInfoReq,5089
GetReunionMissionInfoRsp,5081
GetReunionPrivilegeInfoReq,5076
GetReunionPrivilegeInfoRsp,5062
GetReunionSignInInfoReq,5086
GetReunionSignInInfoRsp,5065
GetRogueDairyRepairInfoReq,8633
GetRogueDairyRepairInfoRsp,8433
GetSceneAreaReq,244
GetSceneAreaRsp,294
GetSceneNpcPositionReq,564
GetSceneNpcPositionRsp,514
GetScenePerformanceReq,3283
GetScenePerformanceRsp,3274
GetScenePointReq,242
GetScenePointRsp,229
GetShopmallDataReq,714
GetShopmallDataRsp,734
GetShopReq,767
GetShopRsp,775
GetSignInRewardReq,2514
GetSignInRewardRsp,2534
GetStoreCustomDungeonReq,6222
GetStoreCustomDungeonRsp,6210
GetUgcBriefInfoReq,6309
GetUgcBriefInfoRsp,6346
GetUgcReq,6348
GetUgcRsp,6343
GetWidgetSlotReq,4255
GetWidgetSlotRsp,4266
GetWorldMpInfoReq,3479
GetWorldMpInfoRsp,3118
GHLIEPKOHJD,7942
GIAFFPENJNC,7387
GiveUpRoguelikeDungeonCardReq,8292
GiveUpRoguelikeDungeonCardRsp,8752
GivingRecordChangeNotify,136
GivingRecordNotify,143
GLIHKFPIPPB,7641
GLMHDEPFNPJ,20896
GlobalBuildingInfoNotify,5373
GMShowNavMeshReq,2304
GMShowNavMeshRsp,2320
GMShowObstacleReq,2353
GMShowObstacleRsp,2338
GmTalkNotify,84
GmTalkReq,75
GmTalkRsp,54
GNKAPMPOIOE,7621
GOPOEDFNDBO,7282
GrantRewardNotify,613
GravenInnocenceEditCarveCombinationReq,24190
GravenInnocenceEditCarveCombinationRsp,20912
GravenInnocencePhotoFinishReq,23079
GravenInnocencePhotoFinishRsp,23629
GravenInnocencePhotoReminderNotify,24173
GravenInnocenceRaceRestartReq,22616
GravenInnocenceRaceRestartRsp,24201
GravenInnocenceRaceSettleNotify,24552
GroupLinkAllNotify,5798
GroupLinkChangeNotify,5793
GroupLinkDeleteNotify,5759
GroupLinkMarkUpdateNotify,5796
GroupSuiteNotify,3263
GroupUnloadNotify,3167
GuestBeginEnterSceneNotify,3195
GuestPostEnterSceneNotify,3012
H5ActivityIdsNotify,5659
HAPLGGHOBAJ,7036
HBHMEOHPEBO,7201
HGIFNPKLHJM,7776
HHHOMEPECIM,7539
HideAndSeekChooseMapReq,8744
HideAndSeekChooseMapRsp,8413
HideAndSeekPlayerCapturedNotify,5526
HideAndSeekPlayerReadyNotify,5330
HideAndSeekPlayerSetAvatarNotify,5387
HideAndSeekSelectAvatarReq,5397
HideAndSeekSelectAvatarRsp,5340
HideAndSeekSelectSkillReq,8896
HideAndSeekSelectSkillRsp,8715
HideAndSeekSetReadyReq,5311
HideAndSeekSetReadyRsp,5360
HideAndSeekSettleNotify,5393
HIDIPEIMBEG,24166
HitClientTrivialNotify,278
HitTreeNotify,3299
HKGFBIHCDHH,7677
HMLAENOCENE,7195
HNPEJFPHAEH,7429
HomeAllUnlockedBgmIdListNotify,4544
HomeAvatarAllFinishRewardNotify,4504
HomeAvatarCostumeChangeNotify,4651
HomeAvatarRewardEventGetReq,4859
HomeAvatarRewardEventGetRsp,4784
HomeAvatarRewardEventNotify,4682
HomeAvatarSummonAllEventNotify,4892
HomeAvatarSummonEventReq,4708
HomeAvatarSummonEventRsp,4633
HomeAvatarSummonFinishReq,4510
HomeAvatarSummonFinishRsp,4566
HomeAvatarTalkFinishInfoNotify,4517
HomeAvatarTalkReq,4603
HomeAvatarTalkRsp,4484
HomeAvtarAllFinishRewardNotify,4480
HomeBalloonGalleryScoreNotify,4532
HomeBalloonGallerySettleNotify,4618
HomeBasicInfoNotify,4501
HomeBlockNotify,4857
HomeBlueprintInfoNotify,4463
HomeChangeBgmNotify,4653
HomeChangeBgmReq,4806
HomeChangeBgmRsp,4815
HomeChangeEditModeReq,4533
HomeChangeEditModeRsp,4862
HomeChangeModuleReq,4789
HomeChangeModuleRsp,4876
HomeChooseModuleReq,4843
HomeChooseModuleRsp,4736
HomeClearGroupRecordReq,4870
HomeClearGroupRecordRsp,4846
HomeComfortInfoNotify,4816
HomeCreateBlueprintReq,4865
HomeCreateBlueprintRsp,4519
HomeCustomFurnitureInfoNotify,4647
HomeDeleteBlueprintReq,4854
HomeDeleteBlueprintRsp,4586
HomeEditCustomFurnitureReq,4558
HomeEditCustomFurnitureRsp,4749
HomeEnterEditModeFinishReq,4676
HomeEnterEditModeFinishRsp,4562
HomeExchangeWoodReq,4716
HomeExchangeWoodRsp,4582
HomeFishFarmingInfoNotify,4807
HomeGalleryInPlayingNotify,5523
HomeGetArrangementInfoReq,4538
HomeGetArrangementInfoRsp,4704
HomeGetBasicInfoReq,4817
HomeGetBlueprintSlotInfoReq,4657
HomeGetBlueprintSlotInfoRsp,4565
HomeGetFishFarmingInfoReq,4575
HomeGetFishFarmingInfoRsp,4849
HomeGetGroupRecordReq,4844
HomeGetGroupRecordRsp,4522
HomeGetOnlineStatusReq,4589
HomeGetOnlineStatusRsp,4642
HomeKickPlayerReq,4610
HomeKickPlayerRsp,4889
HomeLimitedShopBuyGoodsReq,4471
HomeLimitedShopBuyGoodsRsp,4883
HomeLimitedShopGoodsListReq,4769
HomeLimitedShopGoodsListRsp,4451
HomeLimitedShopInfoChangeNotify,4722
HomeLimitedShopInfoNotify,4584
HomeLimitedShopInfoReq,4476
HomeLimitedShopInfoRsp,4791
HomeMarkPointNotify,4697
HomeModuleSeenReq,4672
HomeModuleSeenRsp,4507
HomeModuleUnlockNotify,4700
HomeNewUnlockedBgmIdListNotify,4612
HomePictureFrameInfoNotify,4895
HomePlantFieldNotify,4710
HomePlantInfoNotify,4545
HomePlantInfoReq,4645
HomePlantInfoRsp,4848
HomePlantSeedReq,4607
HomePlantSeedRsp,4546
HomePlantWeedReq,4614
HomePlantWeedRsp,4671
HomePreChangeEditModeNotify,4670
HomePreviewBlueprintReq,4650
HomePreviewBlueprintRsp,4600
HomePriorCheckNotify,4872
HomeRacingGallerySettleNotify,4764
HomeResourceNotify,4753
HomeResourceTakeFetterExpReq,4534
HomeResourceTakeFetterExpRsp,4808
HomeResourceTakeHomeCoinReq,4688
HomeResourceTakeHomeCoinRsp,4554
HomeSaveArrangementNoChangeReq,4475
HomeSaveArrangementNoChangeRsp,4742
HomeSceneInitFinishReq,4900
HomeSceneInitFinishRsp,4780
HomeSceneJumpReq,4665
HomeSceneJumpRsp,4482
HomeScenePointFishFarmingInfoNotify,4530
HomeSearchBlueprintReq,4608
HomeSearchBlueprintRsp,4659
HomeSeekFurnitureGalleryScoreNotify,4795
HomeSetBlueprintFriendOptionReq,4490
HomeSetBlueprintFriendOptionRsp,4496
HomeSetBlueprintSlotOptionReq,4521
HomeSetBlueprintSlotOptionRsp,4855
HomeTransferReq,4537
HomeTransferRsp,4623
HomeUpdateArrangementInfoReq,4840
HomeUpdateArrangementInfoRsp,4776
HomeUpdateFishFarmingInfoReq,4746
HomeUpdateFishFarmingInfoRsp,4551
HomeUpdatePictureFrameInfoReq,4813
HomeUpdatePictureFrameInfoRsp,4748
HomeUpdateScenePointFishFarmingInfoReq,4536
HomeUpdateScenePointFishFarmingInfoRsp,4894
HostPlayerNotify,354
HuntingFailNotify,4335
HuntingGiveUpReq,4301
HuntingGiveUpRsp,4302
HuntingOngoingNotify,4321
HuntingRevealClueNotify,4332
HuntingRevealFinalNotify,4339
HuntingStartNotify,4344
HuntingSuccessNotify,4331
ICEDOFNJPDC,22260
ICNAKHAOKCB,7757
IHBIHEBCNDJ,6484
IIPPKEOPFIH,7648
IMCPJNAJPFN,7083
InBattleMechanicusBuildingPointsNotify,5372
InBattleMechanicusCardResultNotify,5342
InBattleMechanicusConfirmCardNotify,5391
InBattleMechanicusConfirmCardReq,5359
InBattleMechanicusConfirmCardRsp,5307
InBattleMechanicusExcapeMonsterNotify,5314
InBattleMechanicusLeftMonsterNotify,5334
InBattleMechanicusPickCardNotify,5350
InBattleMechanicusPickCardReq,5382
InBattleMechanicusPickCardRsp,5365
InBattleMechanicusSettleNotify,5327
INEIPAMELIP,7287
InstableSprayEnterDungeonReq,23181
InstableSprayEnterDungeonRsp,24557
InstableSprayGalleryInfoNotify,5541
InstableSprayLevelFinishNotify,23121
InstableSprayRestartDungeonReq,23108
InstableSprayRestartDungeonRsp,20879
InstableSpraySwitchTeamReq,24932
InstableSpraySwitchTeamRsp,23402
InteractDailyDungeonInfoNotify,987
InterpretInferenceWordReq,487
InterpretInferenceWordRsp,453
InterruptGalleryReq,5591
InterruptGalleryRsp,5542
InvestigationMonsterUpdateNotify,1920
InvestigationQuestDailyNotify,1902
InvestigationReadQuestDailyNotify,1921
IOLOAFAFAJJ,3079
IrodoriChessEquipCardReq,8511
IrodoriChessEquipCardRsp,8145
IrodoriChessLeftMonsterNotify,5331
IrodoriChessPlayerInfoNotify,5332
IrodoriChessUnequipCardReq,8783
IrodoriChessUnequipCardRsp,8825
IrodoriEditFlowerCombinationReq,8746
IrodoriEditFlowerCombinationRsp,8800
IrodoriFillPoetryReq,8228
IrodoriFillPoetryRsp,8346
IrodoriMasterGalleryCgEndNotify,8555
IrodoriMasterGallerySettleNotify,8379
IrodoriMasterStartGalleryReq,8344
IrodoriMasterStartGalleryRsp,8017
IrodoriScanEntityReq,8281
IrodoriScanEntityRsp,8730
IslandPartyRaftInfoNotify,5544
IslandPartySailInfoNotify,5594
IslandPartySettleNotify,20411
ItemAddHintNotify,614
ItemCdGroupTimeNotify,626
ItemGivingReq,108
ItemGivingRsp,179
ItemRenameAvatarReq,1780
ItemRenameAvatarRsp,1797
JDFJBMFFENF,24811
JEFJPINLMON,23524
JENNEPEEJMO,7238
JGMCLGAMEOA,7060
JHMFBDNPMCB,7079
JNNEIKMALBJ,7597
JNPBOGLAGMK,7370
JoinHomeWorldFailNotify,4847
JoinPlayerFailNotify,251
JoinPlayerSceneReq,285
JoinPlayerSceneRsp,273
KeepAliveNotify,67
KIDNHNCMPAD,7877
KLHLFOMHLML,21821
KOBIDCOIMPI,20034
LanternRiteDoFireworksReformReq,8261
LanternRiteDoFireworksReformRsp,8564
LanternRiteEndFireworksReformReq,8322
LanternRiteEndFireworksReformRsp,8142
LanternRiteStartFireworksReformReq,8865
LanternRiteStartFireworksReformRsp,8546
LanternRiteTakeSkinRewardReq,8502
LanternRiteTakeSkinRewardRsp,8356
LanV3BoatGameStartSingleReq,24887
LanV3BoatGameStartSingleRsp,21227
LanV3BoatGameTransferFinishNotify,20763
LanV3BoatInterruptSettleStageReq,23995
LanV3BoatInterruptSettleStageRsp,24740
LanV3RaceRestartReq,21466
LanV3RaceRestartRsp,24133
LanV3RaceSettleNotify,24480
LanV3ShadowFinishLevelReq,23065
LanV3ShadowFinishLevelRsp,23997
LastPacketPrintNotify,41
LaunchFireworksReq,6053
LaunchFireworksRsp,6011
LBCFEPONBPJ,7005
LDBDLKGAKCB,22413
LeaveSceneReq,275
LeaveSceneRsp,254
LeaveWorldNotify,3009
LEJKGLPPFBN,7769
LevelTagDataNotify,3072
LevelupCityReq,243
LevelupCityRsp,236
LGMLPBFMEEM,7529
LHNEFELJGOO,6159
LifeStateChangeNotify,1275
LikeCustomDungeonReq,6219
LikeCustomDungeonRsp,6203
LIKPGKGOHGB,20042
LiveEndNotify,886
LiveStartNotify,870
LJKPHEIEJNN,7479
LLAEAKDNIHM,7206
LNJPIINEAIJ,7813
LoadActivityTerrainNotify,2146
LOLPIGFBEIA,1652
LuaEnvironmentEffectNotify,3136
LuaSetOptionNotify,343
LuminanceStoneChallengeSettleNotify,8895
LunaRiteAreaFinishNotify,8956
LunaRiteGroupBundleRegisterNotify,8279
LunaRiteHintPointRemoveNotify,8793
LunaRiteHintPointReq,8114
LunaRiteHintPointRsp,8873
LunaRiteSacrificeReq,8182
LunaRiteSacrificeRsp,8159
LunaRiteTakeSacrificeRewardReq,8999
LunaRiteTakeSacrificeRewardRsp,8156
MailChangeNotify,1475
MainCoopFailNotify,1987
MainCoopUpdateNotify,1993
MapAreaChangeNotify,3284
MarkEntityInMinMapNotify,230
MarkMapReq,3087
MarkMapRsp,3193
MarkNewNotify,1207
MarkTargetInvestigationMonsterNotify,1916
MassiveEntityElementOpBatchNotify,304
MassiveEntityStateChangedNotify,360
MaterialDeleteReturnNotify,653
MaterialDeleteUpdateNotify,620
McoinExchangeHcoinReq,643
McoinExchangeHcoinRsp,636
MDBNJGGODKO,7814
MDIPGMFKKDN,7890
MechanicusCandidateTeamCreateReq,3929
MechanicusCandidateTeamCreateRsp,3927
MechanicusCloseNotify,3934
MechanicusCoinNotify,3964
MechanicusLevelupGearReq,3965
MechanicusLevelupGearRsp,3950
MechanicusOpenNotify,3914
MechanicusSequenceOpenNotify,3954
MechanicusUnlockGearReq,3972
MechanicusUnlockGearRsp,3982
MeetNpcReq,572
MeetNpcRsp,582
MEMEFOMDNGE,101
MetNpcIdListNotify,534
MichiaeMatsuriDarkPressureLevelUpdateNotify,8135
MichiaeMatsuriGainCrystalExpUpdateNotify,8289
MichiaeMatsuriInteractStatueReq,8836
MichiaeMatsuriInteractStatueRsp,8216
MichiaeMatsuriRemoveChallengeMarkNotify,8578
MichiaeMatsuriRemoveChestMarkNotify,8082
MichiaeMatsuriStartBossChallengeReq,8225
MichiaeMatsuriStartBossChallengeRsp,8826
MichiaeMatsuriStartDarkChallengeReq,8357
MichiaeMatsuriStartDarkChallengeRsp,8160
MichiaeMatsuriUnlockCrystalSkillReq,8949
MichiaeMatsuriUnlockCrystalSkillRsp,8845
MIMCCIBHBKO,124
MIMGLIBHAPO,1768
MiracleRingDataNotify,5209
MiracleRingDeliverItemReq,5244
MiracleRingDeliverItemRsp,5232
MiracleRingDestroyNotify,5239
MiracleRingDropResultNotify,5215
MiracleRingTakeRewardReq,5246
MiracleRingTakeRewardRsp,5236
MistTrialDunegonFailNotify,8765
MistTrialFloorLevelNotify,921
MistTrialGetChallengeMissionReq,8002
MistTrialGetChallengeMissionRsp,8558
MistTrialGetDungeonExhibitionDataReq,8931
MistTrialGetDungeonExhibitionDataRsp,8058
MistTrialSelectAvatarAndEnterDungeonReq,8641
MistTrialSelectAvatarAndEnterDungeonRsp,8060
MistTrialSettleNotify,8559
SkipPlayerGameTimeReq,196
MOGAEONOKMH,7506
MONAENEBFNP,7928
MonsterAIConfigHashNotify,3379
MonsterAlertChangeNotify,313
MonsterForceAlertNotify,357
MonsterPointArrayRouteUpdateNotify,3498
MonsterSummonTagNotify,1367
MpBlockNotify,1837
MpPlayGuestReplyInviteReq,1840
MpPlayGuestReplyInviteRsp,1822
MpPlayGuestReplyNotify,1810
MpPlayInviteResultNotify,1828
MpPlayOwnerCheckReq,1817
MpPlayOwnerCheckRsp,1826
MpPlayOwnerInviteNotify,1838
MpPlayOwnerStartInviteReq,1812
MpPlayOwnerStartInviteRsp,1825
MpPlayPrepareInterruptNotify,1818
MpPlayPrepareNotify,1807
MultistagePlayEndNotify,5312
MultistagePlayFinishStageReq,5375
MultistagePlayFinishStageRsp,5329
MultistagePlayInfoNotify,5367
MultistagePlaySettleNotify,5348
MultistagePlayStageEndNotify,5322
MuqadasPotionActivityEnterDungeonReq,21504
MuqadasPotionActivityEnterDungeonRsp,22334
MuqadasPotionCaptureWeaknessReq,23970
MuqadasPotionCaptureWeaknessRsp,23854
MuqadasPotionDungeonSettleNotify,20893
MuqadasPotionRestartDungeonReq,23633
MuqadasPotionRestartDungeonRsp,20273
MusicGameSettleReq,8278
MusicGameSettleRsp,8542
MusicGameStartReq,8103
MusicGameStartRsp,8334
NACLEOAMGNK,20213
NavMeshStatsNotify,2343
NDCMCOJJDKH,7938
NicknameAuditConfigNotify,115
NightCrowGadgetObservationMatchReq,825
NightCrowGadgetObservationMatchRsp,818
NKGINHFDBJN,7363
NNFHPDEKDGK,7332
NNLFLCFNLFO,20648
NOENHEACHMJ,4190
NormalUidOpNotify,5748
NpcTalkReq,567
NpcTalkRsp,575
NpcTalkStateNotify,497
ObstacleModifyNotify,2354
OENDJCGMHJJ,7141
OFAIBAHEPPN,7762
OFEAIAMAIOH,7957
OfferingInteractReq,2901
OfferingInteractRsp,2913
OJCCNDLGFNI,7002
ONBFLGKMNKF,23481
OneoffGatherPointDetectorDataNotify,4276
ONPDGODGHML,7364
OODONDJKIEL,7245
OpActivityDataNotify,5154
OpActivityStateNotify,2567
OpActivityUpdateNotify,5164
OpenBlossomCircleCampGuideNotify,2772
OpenStateChangeNotify,146
OpenStateUpdateNotify,174
OrderDisplayNotify,4115
OrderFinishNotify,4109
OtherPlayerEnterHomeNotify,4771
OutStuckCustomDungeonReq,6227
OutStuckCustomDungeonRsp,6230
PAIKIGMLFHE,22157
ParentQuestInferenceDataNotify,430
PathfindingEnterSceneReq,2314
PathfindingEnterSceneRsp,2334
PathfindingPingNotify,2364
PCIJLHIIMLA,7827
PerformOperationNotify,1161
PersistentDungeonSwitchAvatarReq,1720
PersistentDungeonSwitchAvatarRsp,1656
PersonalLineAllDataReq,437
PersonalLineAllDataRsp,425
PersonalLineNewUnlockNotify,449
PersonalSceneJumpReq,298
PersonalSceneJumpRsp,203
PGNKKPBLOMO,7373
PhotoActivityClientViewReq,8167
PhotoActivityClientViewRsp,8945
PhotoActivityFinishReq,8473
PhotoActivityFinishRsp,8713
PingReq,14
PingRsp,34
PIPLLHAJHGC,7951
PJIHFCKIPMB,24509
PKKHPCPOIMH,7247
PlantFlowerAcceptAllGiveFlowerReq,8807
PlantFlowerAcceptAllGiveFlowerRsp,8040
PlantFlowerAcceptGiveFlowerReq,8989
PlantFlowerAcceptGiveFlowerRsp,8343
PlantFlowerEditFlowerCombinationReq,8301
PlantFlowerEditFlowerCombinationRsp,8975
PlantFlowerGetCanGiveFriendFlowerReq,8510
PlantFlowerGetCanGiveFriendFlowerRsp,8692
PlantFlowerGetFriendFlowerWishListReq,8828
PlantFlowerGetFriendFlowerWishListRsp,8375
PlantFlowerGetRecvFlowerListReq,8123
PlantFlowerGetRecvFlowerListRsp,8779
PlantFlowerGetSeedInfoReq,8055
PlantFlowerGetSeedInfoRsp,8797
PlantFlowerGiveFriendFlowerReq,8593
PlantFlowerGiveFriendFlowerRsp,8688
PlantFlowerHaveRecvFlowerNotify,8729
PlantFlowerSetFlowerWishReq,8997
PlantFlowerSetFlowerWishRsp,8034
PlantFlowerTakeSeedRewardReq,8851
PlantFlowerTakeSeedRewardRsp,8340
PlatformChangeRouteNotify,221
PlatformStartRouteNotify,279
PlatformStopRouteNotify,245
PlayerAllowEnterMpAfterAgreeMatchNotify,4181
PlayerApplyEnterHomeNotify,4757
PlayerApplyEnterHomeResultNotify,4568
PlayerApplyEnterHomeResultReq,4668
PlayerApplyEnterHomeResultRsp,4714
PlayerApplyEnterMpAfterMatchAgreedNotify,4171
PlayerApplyEnterMpNotify,1848
PlayerApplyEnterMpReq,1843
PlayerApplyEnterMpResultNotify,1846
PlayerApplyEnterMpResultReq,1836
PlayerApplyEnterMpResultRsp,1815
PlayerApplyEnterMpRsp,1809
PlayerCancelMatchReq,4196
PlayerCancelMatchRsp,4186
PlayerChatCDNotify,3354
PlayerChatNotify,3236
PlayerChatReq,3125
PlayerChatRsp,3070
PlayerCompoundMaterialBoostReq,177
PlayerCompoundMaterialBoostRsp,162
PlayerCompoundMaterialReq,133
PlayerCompoundMaterialRsp,116
PlayerConfirmMatchReq,4182
PlayerConfirmMatchRsp,4189
PlayerCookArgsReq,145
PlayerCookArgsRsp,121
PlayerCookReq,184
PlayerCookRsp,141
PlayerDataNotify,182
PlayerDeathZoneNotify,6259
PlayerEnterDungeonReq,954
PlayerEnterDungeonRsp,964
PlayerEnterSceneInfoNotify,289
PlayerEnterSceneNotify,267
PlayerEyePointStateNotify,3065
PlayerFishingDataNotify,5838
PlayerForceExitReq,106
PlayerForceExitRsp,190
PlayerGameTimeByLuaNotify,168
PlayerGameTimeNotify,159
PlayerGCGMatchConfirmNotify,4188
PlayerGCGMatchDismissNotify,4175
PlayerGeneralMatchConfirmNotify,4152
PlayerGeneralMatchDismissNotify,4151
PlayerGetForceQuitBanInfoReq,4167
PlayerGetForceQuitBanInfoRsp,4176
PlayerHomeCompInfoNotify,4886
PlayerInjectFixNotify,192
PlayerInvestigationAllInfoNotify,1911
PlayerInvestigationNotify,1901
PlayerInvestigationTargetNotify,1930
PlayerIpRegionNotify,151
PlayerLevelRewardUpdateNotify,120
PlayerLoginReq,154
PlayerLoginRsp,164
PlayerLogoutNotify,172
PlayerLogoutReq,114
PlayerLogoutRsp,134
PlayerLuaShellNotify,101
PlayerMatchAgreedResultNotify,4185
PlayerMatchInfoNotify,4159
PlayerMatchStopNotify,4165
PlayerMatchSuccNotify,4194
PlayerNicknameAuditDataNotify,200
PlayerNicknameNotify,139
PlayerOfferingDataNotify,2925
PlayerOfferingReq,2916
PlayerOfferingRsp,2924
PlayerPreEnterMpNotify,1832
PlayerPropChangeNotify,156
PlayerPropChangeReasonNotify,1250
PlayerPropNotify,107
PlayerQuitDungeonReq,914
PlayerQuitDungeonRsp,934
PlayerQuitFromHomeNotify,4837
PlayerQuitFromMpNotify,1844
PlayerRandomCookReq,170
PlayerRandomCookRsp,113
PlayerRechargeDataNotify,4136
PlayerReportReq,4002
PlayerReportRsp,4088
PlayerRoutineDataNotify,3548
PlayerSetLanguageReq,149
PlayerSetLanguageRsp,197
PlayerSetOnlyMPWithPSPlayerReq,1835
PlayerSetOnlyMPWithPSPlayerRsp,1821
PlayerSetPauseReq,102
PlayerSetPauseRsp,188
PlayerSignatureAuditDataNotify,4076
PlayerSignatureNotify,4089
PlayerStartMatchReq,4198
PlayerStartMatchRsp,4193
PlayerStoreNotify,667
PlayerTimeNotify,171
PlayerWorldSceneInfoListNotify,3152
POKDLKEBOPO,903
PostEnterSceneReq,3446
PostEnterSceneRsp,3030
PotionEnterDungeonNotify,8295
PotionEnterDungeonReq,8630
PotionEnterDungeonRsp,8889
PotionResetChallengeReq,8958
PotionResetChallengeRsp,8262
PotionRestartDungeonReq,8613
PotionRestartDungeonRsp,8275
PotionSaveDungeonResultReq,8306
PotionSaveDungeonResultRsp,8911
PrivateChatNotify,5004
PrivateChatReq,5017
PrivateChatRsp,5025
ProfilePictureChangeNotify,4043
ProjectorOptionReq,813
ProjectorOptionRsp,857
ProudSkillChangeNotify,1059
ProudSkillExtraLevelNotify,1029
ProudSkillUpgradeReq,1065
ProudSkillUpgradeRsp,1050
PSNBlackListNotify,4008
PSNFriendListNotify,4036
PSPlayerApplyEnterMpReq,1801
PSPlayerApplyEnterMpRsp,1802
PublishCustomDungeonReq,6202
PublishCustomDungeonRsp,6217
PublishUgcReq,6339
PublishUgcRsp,6331
PullPrivateChatReq,4984
PullPrivateChatRsp,5022
PullRecentChatReq,5032
PullRecentChatRsp,5015
PushTipsAllDataNotify,2219
PushTipsChangeNotify,2244
PushTipsReadFinishReq,2294
PushTipsReadFinishRsp,2274
QueryCodexMonsterBeKilledNumReq,4208
QueryCodexMonsterBeKilledNumRsp,4201
QueryPathReq,2367
QueryPathRsp,2375
QuestCreateEntityReq,450
QuestCreateEntityRsp,459
QuestDelNotify,454
QuestDestroyEntityReq,407
QuestDestroyEntityRsp,491
QuestDestroyNpcReq,419
QuestDestroyNpcRsp,444
QuestGlobalVarNotify,426
QuestListNotify,467
QuestListUpdateNotify,475
QuestProgressUpdateNotify,466
QuestRenameAvatarReq,436
QuestRenameAvatarRsp,408
QuestTransmitReq,433
QuestTransmitRsp,416
QuestUpdateQuestTimeVarNotify,488
QuestUpdateQuestVarNotify,423
QuestUpdateQuestVarReq,461
QuestUpdateQuestVarRsp,456
QuickOpenActivityReq,8171
QuickOpenActivityRsp,8670
QuickUseWidgetReq,4281
QuickUseWidgetRsp,4285
ReadMailNotify,1454
ReadNicknameAuditReq,169
ReadNicknameAuditRsp,181
ReadPrivateChatReq,5000
ReadPrivateChatRsp,5009
ReadSignatureAuditReq,4073
ReadSignatureAuditRsp,4032
ReceivedTrialAvatarActivityRewardReq,2005
ReceivedTrialAvatarActivityRewardRsp,2009
RechargeReq,4148
RechargeRsp,4143
RedeemLegendaryKeyReq,418
RedeemLegendaryKeyRsp,458
ReformFireworksReq,6040
ReformFireworksRsp,5982
RefreshBackgroundAvatarReq,1636
RefreshBackgroundAvatarRsp,1786
RefreshEntityAuthNotify,3484
RefreshRogueDiaryCardReq,8849
RefreshRogueDiaryCardRsp,8105
RefreshRoguelikeDungeonCardReq,8092
RefreshRoguelikeDungeonCardRsp,8721
RegionalPlayInfoNotify,6298
RegionSearchChangeRegionNotify,5643
RegionSearchNotify,5648
ReliquaryDecomposeReq,631
ReliquaryDecomposeRsp,699
ReliquaryFilterStateNotify,680
ReliquaryFilterStateSaveNotify,678
ReliquaryPromoteReq,646
ReliquaryPromoteRsp,684
ReliquaryUpgradeReq,694
ReliquaryUpgradeRsp,674
RemotePlayerWidgetNotify,6009
RemoveBlacklistReq,4013
RemoveBlacklistRsp,4057
RemoveCustomDungeonReq,6231
RemoveCustomDungeonRsp,6235
RemoveRandTaskInfoNotify,153
ReplayCustomDungeonReq,6242
ReplayCustomDungeonRsp,6234
ReportFightAntiCheatNotify,321
ReportTrackingIOInfoNotify,4144
RequestLiveInfoReq,884
RequestLiveInfoRsp,841
ReserveRogueDiaryAvatarReq,8416
ReserveRogueDiaryAvatarRsp,8457
ResetRogueDiaryPlayReq,8360
ResetRogueDiaryPlayRsp,8336
ResinCardDataUpdateNotify,4131
ResinChangeNotify,649
RestartCoinCollectPlaySingleModeReq,22688
RestartCoinCollectPlaySingleModeRsp,21212
RestartEffigyChallengeReq,2188
RestartEffigyChallengeRsp,2137
ResumeRogueDiaryDungeonReq,8056
ResumeRogueDiaryDungeonRsp,8712
RetryCurRogueDiaryDungeonReq,8423
RetryCurRogueDiaryDungeonRsp,8960
ReunionActivateNotify,5088
ReunionBriefInfoReq,5098
ReunionBriefInfoRsp,5093
ReunionDailyRefreshNotify,5072
ReunionPrivilegeChangeNotify,5090
ReunionSettleNotify,5075
RobotPushPlayerDataNotify,42
RogueCellUpdateNotify,8624
RogueDiaryCoinAddNotify,8059
RogueDiaryDungeonInfoNotify,8415
RogueDiaryDungeonSettleNotify,8220
RogueDiaryRepairInfoNotify,8835
RogueDiaryReviveAvatarReq,8575
RogueDiaryReviveAvatarRsp,8812
RogueDiaryTiredAvatarNotify,8929
RogueDungeonPlayerCellChangeNotify,8320
RogueFinishRepairReq,8749
RogueFinishRepairRsp,8024
RogueHealAvatarsReq,8610
RogueHealAvatarsRsp,8941
RoguelikeCardGachaNotify,8494
RoguelikeEffectDataNotify,8556
RoguelikeEffectViewReq,8885
RoguelikeEffectViewRsp,8862
RoguelikeGiveUpReq,8061
RoguelikeGiveUpRsp,8868
RoguelikeMistClearNotify,8512
RoguelikeRefreshCardCostUpdateNotify,8266
RoguelikeResourceBonusPropUpdateNotify,8376
RoguelikeRuneRecordUpdateNotify,8950
RoguelikeSelectAvatarAndEnterDungeonReq,8863
RoguelikeSelectAvatarAndEnterDungeonRsp,8400
RoguelikeTakeStageFirstPassRewardReq,8541
RoguelikeTakeStageFirstPassRewardRsp,8530
RogueResumeDungeonReq,8029
RogueResumeDungeonRsp,8009
RogueSwitchAvatarReq,8770
RogueSwitchAvatarRsp,8259
SalesmanDeliverItemReq,2167
SalesmanDeliverItemRsp,2067
SalesmanTakeRewardReq,2062
SalesmanTakeRewardRsp,2070
SalesmanTakeSpecialRewardReq,2166
SalesmanTakeSpecialRewardRsp,2184
SalvageEscortRestartReq,8020
SalvageEscortRestartRsp,8118
SalvageEscortSettleNotify,8353
SalvagePreventRestartReq,8439
SalvagePreventRestartRsp,8030
SalvagePreventSettleNotify,8967
SaveCoopDialogReq,1972
SaveCoopDialogRsp,1960
SaveCustomDungeonRoomReq,6209
SaveCustomDungeonRoomRsp,6246
SaveMainCoopReq,1959
SaveMainCoopRsp,1996
SaveUgcReq,6344
SaveUgcRsp,6332
SceneAreaUnlockNotify,274
SceneAreaWeatherNotify,297
SceneAudioNotify,3412
SceneAvatarStaminaStepReq,250
SceneAvatarStaminaStepRsp,259
SceneCreateEntityReq,241
SceneCreateEntityRsp,270
SceneDataNotify,3210
SceneDestroyEntityReq,213
SceneDestroyEntityRsp,257
SceneEntitiesMoveCombineNotify,3188
SceneEntitiesMovesReq,222
SceneEntitiesMovesRsp,212
SceneEntityAppearNotify,234
SceneEntityDisappearNotify,272
SceneEntityDrownReq,246
SceneEntityDrownRsp,284
SceneEntityMoveNotify,207
SceneEntityMoveReq,282
SceneEntityMoveRsp,265
SceneEntityUpdateNotify,3095
SceneForceLockNotify,226
SceneForceUnlockNotify,286
SceneGalleryInfoNotify,5529
SceneGalleryVintageHuntingSettleNotify,20310
SceneInitFinishReq,264
SceneInitFinishRsp,214
SceneKickPlayerNotify,299
SceneKickPlayerReq,232
SceneKickPlayerRsp,231
ScenePlayBattleInfoListNotify,4379
ScenePlayBattleInfoNotify,4417
ScenePlayBattleInterruptNotify,4357
ScenePlayBattleResultNotify,4441
ScenePlayBattleUidOpNotify,4392
ScenePlayerBackgroundAvatarRefreshNotify,3389
ScenePlayerInfoNotify,240
ScenePlayerLocationNotify,291
ScenePlayerSoundNotify,201
ScenePlayGuestReplyInviteReq,4422
ScenePlayGuestReplyInviteRsp,4432
ScenePlayGuestReplyNotify,4415
ScenePlayInfoListNotify,4409
ScenePlayInviteResultNotify,4400
ScenePlayOutofRegionNotify,4377
ScenePlayOwnerCheckReq,4425
ScenePlayOwnerCheckRsp,4404
ScenePlayOwnerInviteNotify,4384
ScenePlayOwnerStartInviteReq,4414
ScenePlayOwnerStartInviteRsp,4364
ScenePointUnlockNotify,261
SceneRouteChangeNotify,208
SceneTeamUpdateNotify,1762
SceneTimeNotify,210
SceneTransToPointReq,256
SceneTransToPointRsp,223
SceneWeatherForcastReq,3037
SceneWeatherForcastRsp,3257
SeaLampCoinNotify,2127
SeaLampContributeItemReq,2119
SeaLampContributeItemRsp,2138
SeaLampFlyLampNotify,2161
SeaLampFlyLampReq,2175
SeaLampFlyLampRsp,2152
SeaLampPopularityNotify,2087
SeaLampTakeContributionRewardReq,2149
SeaLampTakeContributionRewardRsp,2170
SeaLampTakePhaseRewardReq,2135
SeaLampTakePhaseRewardRsp,2085
SealBattleBeginNotify,206
SealBattleEndNotify,290
SealBattleProgressNotify,292
SearchCustomDungeonReq,6207
SearchCustomDungeonRsp,6228
SeeMonsterReq,255
SeeMonsterRsp,209
SelectAsterMidDifficultyReq,2003
SelectAsterMidDifficultyRsp,2001
SelectEffigyChallengeConditionReq,2199
SelectEffigyChallengeConditionRsp,2081
SelectRoguelikeDungeonCardReq,8229
SelectRoguelikeDungeonCardRsp,8037
SelectWorktopOptionReq,814
SelectWorktopOptionRsp,834
ServerAnnounceNotify,2073
ServerAnnounceRevokeNotify,2103
ServerBuffChangeNotify,353
ServerCombatEndNotify,1127
ServerCondMeetQuestListUpdateNotify,486
ServerDisconnectClientNotify,198
ServerGlobalValueChangeNotify,1142
ServerLogNotify,59
ServerMessageNotify,5743
ServerTimeNotify,50
ServerTryCancelGeneralMatchNotify,4162
ServerUpdateGlobalValueNotify,1191
SetBattlePassViewedReq,2601
SetBattlePassViewedRsp,2602
SetChatEmojiCollectionReq,4098
SetChatEmojiCollectionRsp,4003
SetCodexPushtipsReadReq,4210
SetCodexPushtipsReadRsp,4202
SetCoopChapterViewedReq,1978
SetCoopChapterViewedRsp,1968
SetCurExpeditionChallengeIdReq,2168
SetCurExpeditionChallengeIdRsp,2052
SetEntityClientDataNotify,3457
SetEquipLockStateReq,645
SetEquipLockStateRsp,621
SetFriendEnterHomeOptionReq,4732
SetFriendEnterHomeOptionRsp,4835
SetFriendRemarkNameReq,4049
SetFriendRemarkNameRsp,4097
SetH5ActivityRedDotTimestampReq,5696
SetH5ActivityRedDotTimestampRsp,5686
SetIsAutoUnlockSpecificEquipReq,673
SetIsAutoUnlockSpecificEquipRsp,632
SetLimitOptimizationNotify,8431
SetNameCardReq,4094
SetNameCardRsp,4074
SetOpenStateReq,144
SetOpenStateRsp,194
SetPlayerBirthdayReq,4091
SetPlayerBirthdayRsp,4042
SetPlayerBornDataReq,127
SetPlayerBornDataRsp,166
SetPlayerHeadImageReq,4066
SetPlayerHeadImageRsp,4061
SetPlayerNameReq,123
SetPlayerNameRsp,119
SetPlayerPropReq,142
SetPlayerPropRsp,129
SetPlayerSignatureReq,4029
SetPlayerSignatureRsp,4027
SetSceneWeatherAreaReq,296
SetSceneWeatherAreaRsp,263
SetUpAvatarTeamReq,1638
SetUpAvatarTeamRsp,1628
SetUpLunchBoxWidgetReq,4282
SetUpLunchBoxWidgetRsp,4289
SetWidgetSlotReq,4297
SetWidgetSlotRsp,4270
ShowClientGuideNotify,3384
ShowClientTutorialNotify,3120
ShowCommonTipsNotify,3469
ShowMessageNotify,64
ShowTemplateReminderNotify,3186
SignatureAuditConfigNotify,4085
SignInInfoReq,2554
SignInInfoRsp,2564
SingleRestartBrickBreakerReq,21486
SingleRestartBrickBreakerRsp,20965
SingleStartBrickBreakerReq,20581
SingleStartBrickBreakerRsp,20772
SkyCrystalDetectorDataUpdateNotify,4262
SocialDataNotify,4016
SpiceActivityFinishMakeSpiceReq,8032
SpiceActivityFinishMakeSpiceRsp,8004
SpiceActivityGivingRecordNotify,8049
SpiceActivityProcessFoodReq,8697
SpiceActivityProcessFoodRsp,8075
SpringUseReq,1788
SpringUseRsp,1737
StartArenaChallengeLevelReq,2194
StartArenaChallengeLevelRsp,2057
StartBuoyantCombatGalleryReq,8282
StartBuoyantCombatGalleryRsp,8916
StartCoopPointReq,1952
StartCoopPointRsp,1967
StartEffigyChallengeReq,2156
StartEffigyChallengeRsp,2021
StartFishingReq,5809
StartFishingRsp,5846
StartRogueDiaryPlayReq,8804
StartRogueDiaryPlayRsp,8169
StartRogueDiaryRoomReq,8291
StartRogueDiaryRoomRsp,8755
StartRogueEliteCellChallengeReq,8874
StartRogueEliteCellChallengeRsp,8759
StartRogueNormalCellChallengeReq,8809
StartRogueNormalCellChallengeRsp,8834
StopReminderNotify,3241
StoreCustomDungeonReq,6218
StoreCustomDungeonRsp,6237
StoreItemChangeNotify,654
StoreItemDelNotify,664
StoreWeightLimitNotify,675
SubmitInferenceWordReq,420
SubmitInferenceWordRsp,443
SummerTimeFloatSignalPositionNotify,8639
SummerTimeFloatSignalUpdateNotify,8576
SummerTimeSprintBoatRestartReq,8178
SummerTimeSprintBoatRestartRsp,8987
SummerTimeSprintBoatSettleNotify,8256
SummerTimeV2BoatSettleNotify,8436
SummerTimeV2RestartBoatGalleryReq,8676
SummerTimeV2RestartBoatGalleryRsp,8599
SummerTimeV2RestartDungeonReq,8988
SummerTimeV2RestartDungeonRsp,8101
SumoDungeonSettleNotify,8665
SumoEnterDungeonNotify,8823
SumoLeaveDungeonNotify,8778
SumoRestartDungeonReq,8246
SumoRestartDungeonRsp,8249
SumoSaveTeamReq,8607
SumoSaveTeamRsp,8005
SumoSelectTeamAndEnterDungeonReq,8930
SumoSelectTeamAndEnterDungeonRsp,8131
SumoSetNoSwitchPunishTimeNotify,8536
SumoSwitchTeamReq,8384
SumoSwitchTeamRsp,8065
SyncScenePlayTeamEntityNotify,3362
SyncTeamEntityNotify,393
TakeAchievementGoalRewardReq,2686
TakeAchievementGoalRewardRsp,2665
TakeAchievementRewardReq,2659
TakeAchievementRewardRsp,2696
TakeAsterSpecialRewardReq,2061
TakeAsterSpecialRewardRsp,2026
TakeBackGivingItemReq,152
TakeBackGivingItemRsp,110
TakeBattlePassMissionPointReq,2644
TakeBattlePassMissionPointRsp,2632
TakeBattlePassRewardReq,2636
TakeBattlePassRewardRsp,2615
TakeCityReputationExploreRewardReq,2842
TakeCityReputationExploreRewardRsp,2829
TakeCityReputationLevelRewardReq,2854
TakeCityReputationLevelRewardRsp,2864
TakeCityReputationParentQuestReq,2834
TakeCityReputationParentQuestRsp,2872
TakeCompoundOutputReq,137
TakeCompoundOutputRsp,125
TakeCoopRewardReq,1975
TakeCoopRewardRsp,1988
TakeDeliveryDailyRewardReq,2054
TakeDeliveryDailyRewardRsp,2029
TakeEffigyFirstPassRewardReq,2050
TakeEffigyFirstPassRewardRsp,2025
TakeEffigyRewardReq,2104
TakeEffigyRewardRsp,2089
TakeFirstShareRewardReq,4037
TakeFirstShareRewardRsp,4025
TakeFurnitureMakeReq,4713
TakeFurnitureMakeRsp,4630
TakeHuntingOfferReq,4348
TakeHuntingOfferRsp,4343
TakeInvestigationRewardReq,1928
TakeInvestigationRewardRsp,1910
TakeInvestigationTargetRewardReq,1926
TakeInvestigationTargetRewardRsp,1927
TakeMaterialDeleteReturnReq,638
TakeMaterialDeleteReturnRsp,604
TakeoffEquipReq,627
TakeoffEquipRsp,666
TakeOfferingLevelRewardReq,2921
TakeOfferingLevelRewardRsp,2908
TakePlayerLevelRewardReq,138
TakePlayerLevelRewardRsp,104
TakeRegionSearchRewardReq,5609
TakeRegionSearchRewardRsp,5646
TakeResinCardDailyRewardReq,4132
TakeResinCardDailyRewardRsp,4139
TakeReunionFirstGiftRewardReq,5059
TakeReunionFirstGiftRewardRsp,5096
TakeReunionMissionRewardReq,5052
TakeReunionMissionRewardRsp,5067
TakeReunionSignInRewardReq,5094
TakeReunionSignInRewardRsp,5082
TakeReunionWatcherRewardReq,5085
TakeReunionWatcherRewardRsp,5071
TanukiTravelFinishGuideQuestNotify,8130
TaskVarNotify,176
TeamChainDungeonInfoNotify,20054
TeamChainEnterDungeonReq,20080
TeamChainRestartDungeonReq,21278
TeamResonanceChangeNotify,1066
ToTheMoonAddObstacleReq,6134
ToTheMoonAddObstacleRsp,6172
ToTheMoonEnterSceneReq,6164
ToTheMoonEnterSceneRsp,6114
ToTheMoonObstaclesModifyNotify,6150
ToTheMoonPingNotify,6154
ToTheMoonQueryPathReq,6167
ToTheMoonQueryPathRsp,6175
ToTheMoonRemoveObstacleReq,6182
ToTheMoonRemoveObstacleRsp,6165
TowerAllDataReq,2482
TowerAllDataRsp,2465
TowerBriefDataNotify,2467
TowerBuffSelectReq,2491
TowerBuffSelectRsp,2442
TowerCurLevelRecordChangeNotify,2454
TowerDailyRewardProgressChangeNotify,2464
TowerEnterLevelReq,2459
TowerEnterLevelRsp,2407
TowerFloorRecordChangeNotify,2475
TowerGetFloorStarRewardReq,2494
TowerGetFloorStarRewardRsp,2474
TowerLevelEndNotify,2457
TowerLevelStarCondNotify,2486
TowerMiddleLevelChangeTeamNotify,2426
TowerRecordHandbookReq,2433
TowerRecordHandbookRsp,2416
TowerSurrenderReq,2419
TowerSurrenderRsp,2444
TowerTeamSelectReq,2434
TowerTeamSelectRsp,2472
TreasureMapBonusChallengeNotify,2163
TreasureMapCurrencyNotify,2046
TreasureMapDetectorDataNotify,4272
TreasureMapGuideTaskDoneNotify,2099
TreasureMapHostInfoNotify,8260
TreasureMapMpChallengeNotify,2071
TreasureMapPreTaskDoneNotify,2191
TreasureMapRegionActiveNotify,2148
TreasureMapRegionInfoNotify,2190
TreasureSeelieCollectOrbsNotify,24055
TrialAvatarFirstPassDungeonNotify,2105
TrialAvatarInDungeonIndexNotify,2109
TriggerCreateGadgetToEquipPartNotify,333
TriggerRoguelikeCurseNotify,8901
TriggerRoguelikeRuneReq,8053
TriggerRoguelikeRuneRsp,8631
TryCustomDungeonReq,6221
TryCustomDungeonRsp,6201
TryEnterHomeReq,4729
TryEnterHomeRsp,4597
TryEnterNextRogueDiaryDungeonReq,8832
TryEnterNextRogueDiaryDungeonRsp,8223
TryInterruptRogueDiaryDungeonReq,8362
TryInterruptRogueDiaryDungeonRsp,8655
UgcNotify,6301
UnfreezeGroupLimitNotify,3464
UnionCmdNotify,27
UnlockAvatarTalentReq,1067
UnlockAvatarTalentRsp,1075
UnlockCoopChapterReq,1985
UnlockCoopChapterRsp,1971
UnlockedFurnitureFormulaDataNotify,4481
UnlockedFurnitureSuiteDataNotify,4684
UnlockNameCardNotify,4086
UnlockPersonalLineReq,405
UnlockPersonalLineRsp,471
UnlockTransPointReq,3180
UnlockTransPointRsp,3311
UnmarkEntityInMinMapNotify,287
UpdateAbilityCreatedMovingPlatformNotify,829
UpdatePlayerShowAvatarListReq,4040
UpdatePlayerShowAvatarListRsp,4011
UpdatePlayerShowNameCardListReq,4030
UpdatePlayerShowNameCardListRsp,4087
UpdatePS4BlockListReq,4018
UpdatePS4BlockListRsp,4058
UpdatePS4FriendListNotify,4056
UpdatePS4FriendListReq,4006
UpdatePS4FriendListRsp,4090
UpdateRedPointNotify,74
UpdateReunionWatcherNotify,5051
UpdateSalvageBundleMarkReq,8157
UpdateSalvageBundleMarkRsp,8732
UpgradeRoguelikeShikigamiReq,8907
UpgradeRoguelikeShikigamiRsp,8493
UseItemReq,682
UseItemRsp,665
UseMiracleRingReq,5248
UseMiracleRingRsp,5243
UseWidgetCreateGadgetReq,4292
UseWidgetCreateGadgetRsp,4284
UseWidgetRetractGadgetReq,4283
UseWidgetRetractGadgetRsp,4277
VehicleInteractReq,844
VehicleInteractRsp,894
VehicleStaminaNotify,826
ViewCodexReq,4206
ViewCodexRsp,4204
ViewLanternProjectionLevelTipsReq,8937
ViewLanternProjectionLevelTipsRsp,8134
ViewLanternProjectionTipsReq,8818
ViewLanternProjectionTipsRsp,8108
VintageCampGroupBundleRegisterNotify,22699
VintageCampStageFinishNotify,20204
VintageDecorateBoothReq,20541
VintageDecorateBoothRsp,24364
VintageHuntingStartGalleryReq,20130
VintageHuntingStartGalleryRsp,24920
VintageMarketDeliverItemReq,20804
VintageMarketDeliverItemRsp,24023
VintageMarketDividendFinishNotify,22646
VintageMarketFinishStorePlayReq,20263
VintageMarketFinishStorePlayRsp,21469
VintageMarketNpcEventFinishNotify,21131
VintageMarketStartStorePlayReq,24083
VintageMarketStartStorePlayRsp,23331
VintageMarketStoreChooseStrategyReq,20628
VintageMarketStoreChooseStrategyRsp,23240
VintageMarketStoreUnlockSlotReq,22121
VintageMarketStoreUnlockSlotRsp,23837
VintageMarketStoreViewStrategyReq,22317
VintageMarketStoreViewStrategyRsp,21284
VintagePresentFinishNoify,24017
VintagePresentFinishNotify,23897
WatcherAllDataNotify,2267
WatcherChangeNotify,2275
WatcherEventNotify,2254
WatcherEventStageNotify,2214
WatcherEventTypeNotify,2264
WaterSpritePhaseFinishNotify,2096
WeaponAwakenReq,657
WeaponAwakenRsp,686
WeaponPromoteReq,619
WeaponPromoteRsp,644
WeaponUpgradeReq,656
WeaponUpgradeRsp,623
WearEquipReq,642
WearEquipRsp,629
WidgetActiveChangeNotify,4264
WidgetCaptureAnimalReq,4274
WidgetCaptureAnimalRsp,4261
WidgetCoolDownNotify,4271
WidgetDoBagReq,4299
WidgetDoBagRsp,4295
WidgetGadgetAllDataNotify,4280
WidgetGadgetDataNotify,4273
WidgetGadgetDestroyNotify,4263
WidgetQuickHitTreeReq,3068
WidgetQuickHitTreeRsp,3174
WidgetReportReq,4251
WidgetReportRsp,4252
WidgetSlotChangeNotify,4254
WidgetUpdateExtraCDReq,6005
WidgetUpdateExtraCDRsp,5925
WidgetUseAttachAbilityGroupChangeNotify,4291
WidgetWeatherWizardDataNotify,5931
WindFieldGalleryChallengeInfoNotify,5513
WindFieldGalleryInfoNotify,5570
WindFieldRestartDungeonReq,20087
WindFieldRestartDungeonRsp,21948
WindSeedClientNotify,1150
WinterCampAcceptAllGiveItemReq,8251
WinterCampAcceptAllGiveItemRsp,8815
WinterCampAcceptGiveItemReq,8014
WinterCampAcceptGiveItemRsp,8374
WinterCampEditSnowmanCombinationReq,8743
WinterCampEditSnowmanCombinationRsp,8128
WinterCampGetCanGiveFriendItemReq,8866
WinterCampGetCanGiveFriendItemRsp,8147
WinterCampGetFriendWishListReq,8440
WinterCampGetFriendWishListRsp,8224
WinterCampGetRecvItemListReq,8547
WinterCampGetRecvItemListRsp,8234
WinterCampGiveFriendItemReq,8187
WinterCampGiveFriendItemRsp,8781
WinterCampRaceScoreNotify,8664
WinterCampRecvItemNotify,8740
WinterCampSetWishListReq,8405
WinterCampSetWishListRsp,8985
WinterCampStageInfoChangeNotify,8531
WinterCampTakeBattleRewardReq,8495
WinterCampTakeBattleRewardRsp,8573
WinterCampTakeExploreRewardReq,8750
WinterCampTakeExploreRewardRsp,8707
WinterCampTriathlonRestartReq,8117
WinterCampTriathlonRestartRsp,8258
WinterCampTriathlonSettleNotify,8920
WorktopOptionNotify,864
WorldAllRoutineTypeNotify,3543
WorldChestOpenNotify,3279
WorldDataNotify,3357
WorldOwnerBlossomBriefInfoNotify,2764
WorldOwnerBlossomScheduleInfoNotify,2714
WorldOwnerDailyTaskNotify,130
WorldPlayerDieNotify,277
WorldPlayerInfoNotify,3247
WorldPlayerLocationNotify,211
WorldPlayerReviveReq,262
WorldPlayerReviveRsp,268
WorldPlayerRTTNotify,19
WorldRoutineChangeNotify,3546
WorldRoutineTypeCloseNotify,3536
WorldRoutineTypeRefreshNotify,3509